Rodolfo Lourenzutti - A/B Testing
…
# Simulating a sample of 30 individuals for group A and Group B
sample_money_donated <- 
tibble(group = c("Website A", "Website B"), 
    amount = list(
        if_else(runif(30) < 0.5, 0, rnorm(30, 80, 10) ), 
        if_else(runif(30) < 0.6, 0, rnorm(30, 100, 20) ))
    ) %>% 
unnest(cols = amount) %>%
sample_n(60)

sample_money_donated

# A tibble: 60 × 2
   group     amount
   <chr>      <dbl>
 1 Website B    0  
 2 Website B    0  
 3 Website B    0  
 4 Website A    0  
 5 Website A   87.8
 6 Website B    0  
 7 Website A   66.2
 8 Website A    0  
 9 Website B   88.6
10 Website A    0  
# … with 50 more rows
…
set.seed(1)

# Simulating a sample of 30 individuals for group A and Group B
sample_subscriber <- 
tibble(website = factor(c("A", "B")), 
    subscribed = list(
        sample(factor(c("yes", "no")), 30, replace = TRUE, p=c(0.42, 0.58)), 
        sample(factor(c("yes", "no")), 30, replace = TRUE, p=c(0.37, 0.58)))
    ) %>% 
unnest(cols = subscribed) %>%
sample_n(60)

sample_subscriber

# A tibble: 60 × 2
   website subscribed
   <fct>   <fct>     
 1 B       no        
 2 B       yes       
 3 A       yes       
 4 A       no        
 5 B       no        
 6 A       no        
 7 A       no        
 8 B       no        
 9 A       yes       
10 A       no        
# … with 50 more rows
…
The selected elements will be your “new” Group A, and the remaining will be your “new” Group B.

Calculate the appropriate test statistic (e.g., the difference of sample proportions or of sample means).

Perform Steps 4, 5 and 6, multiple times to obtain a sample from the Null Distribution .

Compare the observed test statistic with the simulated null model.

Note that by randomizing the groups in the sample (Steps 3, 4, and 5), we are trying to remove the difference between the groups, except for those differences due to sampling variability. But why are we doing that again? Because we want to simulate a sample from the Null Model, which is the model under the assumption that there is no difference between the groups.

 Let’s return to Obama’s campaign problem in the example above. We want to test which website, Website A or Website B, has a higher subscription rate. The data is stored in sample_subscriber.

sample_subscriber

# A tibble: 60 × 2
   website subscribed
   <fct>   <fct>     
 1 B       no        
 2 B       yes       
 3 A       yes       
 4 A       no        
 5 B       no        
 6 A       no        
 7 A       no        
 8 B       no        
 9 A       yes       
10 A       no        
# … with 50 more rows
…
Next, we simulate a sample from the null model by following Steps 3-6. Luckily for us, we don’t need to do this manually as we are already familiar with infer’s workflow.

sample_null_model <- 
    sample_subscriber %>% 
    specify(formula = subscribed ~ website, success = "yes") %>% 
    hypothesise(null = "independence") %>% 
    generate(reps = 5000, type = "permute") %>% 
    calculate(stat = "diff in props", order = c("A", "B"))

sample_null_model

Response: subscribed (factor)
Explanatory: website (factor)
Null Hypothesis: independence
# A tibble: 5,000 × 2
   replicate    stat
       <int>   <dbl>
 1         1  0.1   
 2         2 -0.1   
 3         3 -0.0333
 4         4 -0.233 
 5         5 -0.0333
 6         6 -0.0333
 7         7  0.0333
 8         8  0.167 
 9         9 -0.1   
10        10  0.233 
# … with 4,990 more rows
…
